// Jest Snapshot v1, https://goo.gl/fbAQLP

exports[`app/view/Test-Page Rendering renders default correctly 1`] = `
<div
  id="test-page"
>
  <TableComponent>
    <TableRowComponent>
      <TableCellComponent
        data={0}
        isBold={false}
      />
      <TableCellComponent
        data={0}
        isBold={true}
      />
    </TableRowComponent>
    <TableRowComponent>
      <TableCellComponent
        data={0}
        isBold={true}
      />
      <TableCellComponent
        data={0}
        isBold={false}
      />
    </TableRowComponent>
  </TableComponent>
  <ButtonComponent
    label="Randomize"
    onClick={[Function]}
  />
  <NumericInputComponent
    buttonLabel="Set columns"
    defaultValue={2}
    onClick={[Function]}
  />
  <NumericInputComponent
    buttonLabel="Set rows"
    defaultValue={2}
    onClick={[Function]}
  />
</div>
`;

exports[`app/view/Test-Page Rendering renders no data correctly 1`] = `
<div
  id="test-page"
>
  <ButtonComponent
    label="Randomize"
    onClick={[Function]}
  />
  <NumericInputComponent
    buttonLabel="Set columns"
    defaultValue={null}
    onClick={[Function]}
  />
  <NumericInputComponent
    buttonLabel="Set rows"
    defaultValue={null}
    onClick={[Function]}
  />
</div>
`;
