// Jest Snapshot v1, https://goo.gl/fbAQLP

exports[`app/component/table-component/Table-Component Rendering renders default correctly 1`] = `
<table>
  <tbody>
    <MockComponent />
  </tbody>
</table>
`;
